digraph model_graph {
  // Dotfile by Django-Extensions graph_models
  // Created: 2016-11-05 18:36
  // Cli Options: -a

  fontname = "Helvetica"
  fontsize = 8
  splines  = true

  node [
    fontname = "Helvetica"
    fontsize = 8
    shape = "plaintext"
  ]

  edge [
    fontname = "Helvetica"
    fontsize = 8
  ]

  // Labels


  django_contrib_admin_models_LogEntry [label=<
    <TABLE BGCOLOR="palegoldenrod" BORDER="0" CELLBORDER="0" CELLSPACING="0">
    <TR><TD COLSPAN="2" CELLPADDING="4" ALIGN="CENTER" BGCOLOR="olivedrab4">
    <FONT FACE="Helvetica Bold" COLOR="white">
    LogEntry
    </FONT></TD></TR>
  
    <TR><TD ALIGN="LEFT" BORDER="0">
    <FONT FACE="Helvetica Bold">id</FONT>
    </TD><TD ALIGN="LEFT">
    <FONT FACE="Helvetica Bold">AutoField</FONT>
    </TD></TR>
  
    <TR><TD ALIGN="LEFT" BORDER="0">
    <FONT COLOR="#7B7B7B" FACE="Helvetica Bold">content_type</FONT>
    </TD><TD ALIGN="LEFT">
    <FONT COLOR="#7B7B7B" FACE="Helvetica Bold">ForeignKey (id)</FONT>
    </TD></TR>
  
    <TR><TD ALIGN="LEFT" BORDER="0">
    <FONT FACE="Helvetica Bold">user</FONT>
    </TD><TD ALIGN="LEFT">
    <FONT FACE="Helvetica Bold">ForeignKey (id)</FONT>
    </TD></TR>
  
    <TR><TD ALIGN="LEFT" BORDER="0">
    <FONT FACE="Helvetica ">action_flag</FONT>
    </TD><TD ALIGN="LEFT">
    <FONT FACE="Helvetica ">PositiveSmallIntegerField</FONT>
    </TD></TR>
  
    <TR><TD ALIGN="LEFT" BORDER="0">
    <FONT FACE="Helvetica ">action_time</FONT>
    </TD><TD ALIGN="LEFT">
    <FONT FACE="Helvetica ">DateTimeField</FONT>
    </TD></TR>
  
    <TR><TD ALIGN="LEFT" BORDER="0">
    <FONT COLOR="#7B7B7B" FACE="Helvetica ">change_message</FONT>
    </TD><TD ALIGN="LEFT">
    <FONT COLOR="#7B7B7B" FACE="Helvetica ">TextField</FONT>
    </TD></TR>
  
    <TR><TD ALIGN="LEFT" BORDER="0">
    <FONT COLOR="#7B7B7B" FACE="Helvetica ">object_id</FONT>
    </TD><TD ALIGN="LEFT">
    <FONT COLOR="#7B7B7B" FACE="Helvetica ">TextField</FONT>
    </TD></TR>
  
    <TR><TD ALIGN="LEFT" BORDER="0">
    <FONT FACE="Helvetica ">object_repr</FONT>
    </TD><TD ALIGN="LEFT">
    <FONT FACE="Helvetica ">CharField</FONT>
    </TD></TR>
  
    </TABLE>
    >]




  django_contrib_auth_models_Permission [label=<
    <TABLE BGCOLOR="palegoldenrod" BORDER="0" CELLBORDER="0" CELLSPACING="0">
    <TR><TD COLSPAN="2" CELLPADDING="4" ALIGN="CENTER" BGCOLOR="olivedrab4">
    <FONT FACE="Helvetica Bold" COLOR="white">
    Permission
    </FONT></TD></TR>
  
    <TR><TD ALIGN="LEFT" BORDER="0">
    <FONT FACE="Helvetica Bold">id</FONT>
    </TD><TD ALIGN="LEFT">
    <FONT FACE="Helvetica Bold">AutoField</FONT>
    </TD></TR>
  
    <TR><TD ALIGN="LEFT" BORDER="0">
    <FONT FACE="Helvetica Bold">content_type</FONT>
    </TD><TD ALIGN="LEFT">
    <FONT FACE="Helvetica Bold">ForeignKey (id)</FONT>
    </TD></TR>
  
    <TR><TD ALIGN="LEFT" BORDER="0">
    <FONT FACE="Helvetica ">codename</FONT>
    </TD><TD ALIGN="LEFT">
    <FONT FACE="Helvetica ">CharField</FONT>
    </TD></TR>
  
    <TR><TD ALIGN="LEFT" BORDER="0">
    <FONT FACE="Helvetica ">name</FONT>
    </TD><TD ALIGN="LEFT">
    <FONT FACE="Helvetica ">CharField</FONT>
    </TD></TR>
  
    </TABLE>
    >]

  django_contrib_auth_models_Group [label=<
    <TABLE BGCOLOR="palegoldenrod" BORDER="0" CELLBORDER="0" CELLSPACING="0">
    <TR><TD COLSPAN="2" CELLPADDING="4" ALIGN="CENTER" BGCOLOR="olivedrab4">
    <FONT FACE="Helvetica Bold" COLOR="white">
    Group
    </FONT></TD></TR>
  
    <TR><TD ALIGN="LEFT" BORDER="0">
    <FONT FACE="Helvetica Bold">id</FONT>
    </TD><TD ALIGN="LEFT">
    <FONT FACE="Helvetica Bold">AutoField</FONT>
    </TD></TR>
  
    <TR><TD ALIGN="LEFT" BORDER="0">
    <FONT FACE="Helvetica ">name</FONT>
    </TD><TD ALIGN="LEFT">
    <FONT FACE="Helvetica ">CharField</FONT>
    </TD></TR>
  
    </TABLE>
    >]




  django_contrib_contenttypes_models_ContentType [label=<
    <TABLE BGCOLOR="palegoldenrod" BORDER="0" CELLBORDER="0" CELLSPACING="0">
    <TR><TD COLSPAN="2" CELLPADDING="4" ALIGN="CENTER" BGCOLOR="olivedrab4">
    <FONT FACE="Helvetica Bold" COLOR="white">
    ContentType
    </FONT></TD></TR>
  
    <TR><TD ALIGN="LEFT" BORDER="0">
    <FONT FACE="Helvetica Bold">id</FONT>
    </TD><TD ALIGN="LEFT">
    <FONT FACE="Helvetica Bold">AutoField</FONT>
    </TD></TR>
  
    <TR><TD ALIGN="LEFT" BORDER="0">
    <FONT FACE="Helvetica ">app_label</FONT>
    </TD><TD ALIGN="LEFT">
    <FONT FACE="Helvetica ">CharField</FONT>
    </TD></TR>
  
    <TR><TD ALIGN="LEFT" BORDER="0">
    <FONT FACE="Helvetica ">model</FONT>
    </TD><TD ALIGN="LEFT">
    <FONT FACE="Helvetica ">CharField</FONT>
    </TD></TR>
  
    </TABLE>
    >]




  django_contrib_sessions_base_session_AbstractBaseSession [label=<
    <TABLE BGCOLOR="palegoldenrod" BORDER="0" CELLBORDER="0" CELLSPACING="0">
    <TR><TD COLSPAN="2" CELLPADDING="4" ALIGN="CENTER" BGCOLOR="olivedrab4">
    <FONT FACE="Helvetica Bold" COLOR="white">
    AbstractBaseSession
    </FONT></TD></TR>
  
    <TR><TD ALIGN="LEFT" BORDER="0">
    <FONT FACE="Helvetica ">expire_date</FONT>
    </TD><TD ALIGN="LEFT">
    <FONT FACE="Helvetica ">DateTimeField</FONT>
    </TD></TR>
  
    <TR><TD ALIGN="LEFT" BORDER="0">
    <FONT FACE="Helvetica ">session_data</FONT>
    </TD><TD ALIGN="LEFT">
    <FONT FACE="Helvetica ">TextField</FONT>
    </TD></TR>
  
    </TABLE>
    >]

  django_contrib_sessions_models_Session [label=<
    <TABLE BGCOLOR="palegoldenrod" BORDER="0" CELLBORDER="0" CELLSPACING="0">
    <TR><TD COLSPAN="2" CELLPADDING="4" ALIGN="CENTER" BGCOLOR="olivedrab4">
    <FONT FACE="Helvetica Bold" COLOR="white">
    Session<BR/>&lt;<FONT FACE="Helvetica Italic">AbstractBaseSession</FONT>&gt;
    </FONT></TD></TR>
  
    <TR><TD ALIGN="LEFT" BORDER="0">
    <FONT FACE="Helvetica ItalicBold">session_key</FONT>
    </TD><TD ALIGN="LEFT">
    <FONT FACE="Helvetica ItalicBold">CharField</FONT>
    </TD></TR>
  
    <TR><TD ALIGN="LEFT" BORDER="0">
    <FONT FACE="Helvetica Italic">expire_date</FONT>
    </TD><TD ALIGN="LEFT">
    <FONT FACE="Helvetica Italic">DateTimeField</FONT>
    </TD></TR>
  
    <TR><TD ALIGN="LEFT" BORDER="0">
    <FONT FACE="Helvetica Italic">session_data</FONT>
    </TD><TD ALIGN="LEFT">
    <FONT FACE="Helvetica Italic">TextField</FONT>
    </TD></TR>
  
    </TABLE>
    >]




  guardian_models_GroupObjectPermissionBase [label=<
    <TABLE BGCOLOR="palegoldenrod" BORDER="0" CELLBORDER="0" CELLSPACING="0">
    <TR><TD COLSPAN="2" CELLPADDING="4" ALIGN="CENTER" BGCOLOR="olivedrab4">
    <FONT FACE="Helvetica Bold" COLOR="white">
    GroupObjectPermissionBase<BR/>&lt;<FONT FACE="Helvetica Italic">BaseObjectPermission</FONT>&gt;
    </FONT></TD></TR>
  
    <TR><TD ALIGN="LEFT" BORDER="0">
    <FONT FACE="Helvetica Bold">group</FONT>
    </TD><TD ALIGN="LEFT">
    <FONT FACE="Helvetica Bold">ForeignKey (id)</FONT>
    </TD></TR>
  
    <TR><TD ALIGN="LEFT" BORDER="0">
    <FONT FACE="Helvetica ItalicBold">permission</FONT>
    </TD><TD ALIGN="LEFT">
    <FONT FACE="Helvetica ItalicBold">ForeignKey (id)</FONT>
    </TD></TR>
  
    </TABLE>
    >]

  guardian_models_BaseGenericObjectPermission [label=<
    <TABLE BGCOLOR="palegoldenrod" BORDER="0" CELLBORDER="0" CELLSPACING="0">
    <TR><TD COLSPAN="2" CELLPADDING="4" ALIGN="CENTER" BGCOLOR="olivedrab4">
    <FONT FACE="Helvetica Bold" COLOR="white">
    BaseGenericObjectPermission
    </FONT></TD></TR>
  
    <TR><TD ALIGN="LEFT" BORDER="0">
    <FONT FACE="Helvetica Bold">content_type</FONT>
    </TD><TD ALIGN="LEFT">
    <FONT FACE="Helvetica Bold">ForeignKey (id)</FONT>
    </TD></TR>
  
    <TR><TD ALIGN="LEFT" BORDER="0">
    <FONT FACE="Helvetica ">object_pk</FONT>
    </TD><TD ALIGN="LEFT">
    <FONT FACE="Helvetica ">CharField</FONT>
    </TD></TR>
  
    </TABLE>
    >]

  guardian_models_UserObjectPermissionBase [label=<
    <TABLE BGCOLOR="palegoldenrod" BORDER="0" CELLBORDER="0" CELLSPACING="0">
    <TR><TD COLSPAN="2" CELLPADDING="4" ALIGN="CENTER" BGCOLOR="olivedrab4">
    <FONT FACE="Helvetica Bold" COLOR="white">
    UserObjectPermissionBase<BR/>&lt;<FONT FACE="Helvetica Italic">BaseObjectPermission</FONT>&gt;
    </FONT></TD></TR>
  
    <TR><TD ALIGN="LEFT" BORDER="0">
    <FONT FACE="Helvetica ItalicBold">permission</FONT>
    </TD><TD ALIGN="LEFT">
    <FONT FACE="Helvetica ItalicBold">ForeignKey (id)</FONT>
    </TD></TR>
  
    <TR><TD ALIGN="LEFT" BORDER="0">
    <FONT FACE="Helvetica Bold">user</FONT>
    </TD><TD ALIGN="LEFT">
    <FONT FACE="Helvetica Bold">ForeignKey (None)</FONT>
    </TD></TR>
  
    </TABLE>
    >]

  guardian_models_UserObjectPermission [label=<
    <TABLE BGCOLOR="palegoldenrod" BORDER="0" CELLBORDER="0" CELLSPACING="0">
    <TR><TD COLSPAN="2" CELLPADDING="4" ALIGN="CENTER" BGCOLOR="olivedrab4">
    <FONT FACE="Helvetica Bold" COLOR="white">
    UserObjectPermission<BR/>&lt;<FONT FACE="Helvetica Italic">UserObjectPermissionBase,BaseGenericObjectPermission</FONT>&gt;
    </FONT></TD></TR>
  
    <TR><TD ALIGN="LEFT" BORDER="0">
    <FONT FACE="Helvetica Bold">id</FONT>
    </TD><TD ALIGN="LEFT">
    <FONT FACE="Helvetica Bold">AutoField</FONT>
    </TD></TR>
  
    <TR><TD ALIGN="LEFT" BORDER="0">
    <FONT FACE="Helvetica ItalicBold">content_type</FONT>
    </TD><TD ALIGN="LEFT">
    <FONT FACE="Helvetica ItalicBold">ForeignKey (id)</FONT>
    </TD></TR>
  
    <TR><TD ALIGN="LEFT" BORDER="0">
    <FONT FACE="Helvetica ItalicBold">permission</FONT>
    </TD><TD ALIGN="LEFT">
    <FONT FACE="Helvetica ItalicBold">ForeignKey (id)</FONT>
    </TD></TR>
  
    <TR><TD ALIGN="LEFT" BORDER="0">
    <FONT FACE="Helvetica ItalicBold">user</FONT>
    </TD><TD ALIGN="LEFT">
    <FONT FACE="Helvetica ItalicBold">ForeignKey (id)</FONT>
    </TD></TR>
  
    <TR><TD ALIGN="LEFT" BORDER="0">
    <FONT FACE="Helvetica Italic">object_pk</FONT>
    </TD><TD ALIGN="LEFT">
    <FONT FACE="Helvetica Italic">CharField</FONT>
    </TD></TR>
  
    </TABLE>
    >]

  guardian_models_GroupObjectPermission [label=<
    <TABLE BGCOLOR="palegoldenrod" BORDER="0" CELLBORDER="0" CELLSPACING="0">
    <TR><TD COLSPAN="2" CELLPADDING="4" ALIGN="CENTER" BGCOLOR="olivedrab4">
    <FONT FACE="Helvetica Bold" COLOR="white">
    GroupObjectPermission<BR/>&lt;<FONT FACE="Helvetica Italic">GroupObjectPermissionBase,BaseGenericObjectPermission</FONT>&gt;
    </FONT></TD></TR>
  
    <TR><TD ALIGN="LEFT" BORDER="0">
    <FONT FACE="Helvetica Bold">id</FONT>
    </TD><TD ALIGN="LEFT">
    <FONT FACE="Helvetica Bold">AutoField</FONT>
    </TD></TR>
  
    <TR><TD ALIGN="LEFT" BORDER="0">
    <FONT FACE="Helvetica ItalicBold">content_type</FONT>
    </TD><TD ALIGN="LEFT">
    <FONT FACE="Helvetica ItalicBold">ForeignKey (id)</FONT>
    </TD></TR>
  
    <TR><TD ALIGN="LEFT" BORDER="0">
    <FONT FACE="Helvetica ItalicBold">group</FONT>
    </TD><TD ALIGN="LEFT">
    <FONT FACE="Helvetica ItalicBold">ForeignKey (id)</FONT>
    </TD></TR>
  
    <TR><TD ALIGN="LEFT" BORDER="0">
    <FONT FACE="Helvetica ItalicBold">permission</FONT>
    </TD><TD ALIGN="LEFT">
    <FONT FACE="Helvetica ItalicBold">ForeignKey (id)</FONT>
    </TD></TR>
  
    <TR><TD ALIGN="LEFT" BORDER="0">
    <FONT FACE="Helvetica Italic">object_pk</FONT>
    </TD><TD ALIGN="LEFT">
    <FONT FACE="Helvetica Italic">CharField</FONT>
    </TD></TR>
  
    </TABLE>
    >]




  django_contrib_auth_models_PermissionsMixin [label=<
    <TABLE BGCOLOR="palegoldenrod" BORDER="0" CELLBORDER="0" CELLSPACING="0">
    <TR><TD COLSPAN="2" CELLPADDING="4" ALIGN="CENTER" BGCOLOR="olivedrab4">
    <FONT FACE="Helvetica Bold" COLOR="white">
    PermissionsMixin
    </FONT></TD></TR>
  
    <TR><TD ALIGN="LEFT" BORDER="0">
    <FONT COLOR="#7B7B7B" FACE="Helvetica ">is_superuser</FONT>
    </TD><TD ALIGN="LEFT">
    <FONT COLOR="#7B7B7B" FACE="Helvetica ">BooleanField</FONT>
    </TD></TR>
  
    </TABLE>
    >]

  django_contrib_auth_models_AbstractUser [label=<
    <TABLE BGCOLOR="palegoldenrod" BORDER="0" CELLBORDER="0" CELLSPACING="0">
    <TR><TD COLSPAN="2" CELLPADDING="4" ALIGN="CENTER" BGCOLOR="olivedrab4">
    <FONT FACE="Helvetica Bold" COLOR="white">
    AbstractUser<BR/>&lt;<FONT FACE="Helvetica Italic">AbstractBaseUser,PermissionsMixin</FONT>&gt;
    </FONT></TD></TR>
  
    <TR><TD ALIGN="LEFT" BORDER="0">
    <FONT FACE="Helvetica ">date_joined</FONT>
    </TD><TD ALIGN="LEFT">
    <FONT FACE="Helvetica ">DateTimeField</FONT>
    </TD></TR>
  
    <TR><TD ALIGN="LEFT" BORDER="0">
    <FONT COLOR="#7B7B7B" FACE="Helvetica ">email</FONT>
    </TD><TD ALIGN="LEFT">
    <FONT COLOR="#7B7B7B" FACE="Helvetica ">EmailField</FONT>
    </TD></TR>
  
    <TR><TD ALIGN="LEFT" BORDER="0">
    <FONT COLOR="#7B7B7B" FACE="Helvetica ">first_name</FONT>
    </TD><TD ALIGN="LEFT">
    <FONT COLOR="#7B7B7B" FACE="Helvetica ">CharField</FONT>
    </TD></TR>
  
    <TR><TD ALIGN="LEFT" BORDER="0">
    <FONT COLOR="#7B7B7B" FACE="Helvetica ">is_active</FONT>
    </TD><TD ALIGN="LEFT">
    <FONT COLOR="#7B7B7B" FACE="Helvetica ">BooleanField</FONT>
    </TD></TR>
  
    <TR><TD ALIGN="LEFT" BORDER="0">
    <FONT COLOR="#7B7B7B" FACE="Helvetica ">is_staff</FONT>
    </TD><TD ALIGN="LEFT">
    <FONT COLOR="#7B7B7B" FACE="Helvetica ">BooleanField</FONT>
    </TD></TR>
  
    <TR><TD ALIGN="LEFT" BORDER="0">
    <FONT COLOR="#7B7B7B" FACE="Helvetica Italic">is_superuser</FONT>
    </TD><TD ALIGN="LEFT">
    <FONT COLOR="#7B7B7B" FACE="Helvetica Italic">BooleanField</FONT>
    </TD></TR>
  
    <TR><TD ALIGN="LEFT" BORDER="0">
    <FONT COLOR="#7B7B7B" FACE="Helvetica Italic">last_login</FONT>
    </TD><TD ALIGN="LEFT">
    <FONT COLOR="#7B7B7B" FACE="Helvetica Italic">DateTimeField</FONT>
    </TD></TR>
  
    <TR><TD ALIGN="LEFT" BORDER="0">
    <FONT COLOR="#7B7B7B" FACE="Helvetica ">last_name</FONT>
    </TD><TD ALIGN="LEFT">
    <FONT COLOR="#7B7B7B" FACE="Helvetica ">CharField</FONT>
    </TD></TR>
  
    <TR><TD ALIGN="LEFT" BORDER="0">
    <FONT FACE="Helvetica Italic">password</FONT>
    </TD><TD ALIGN="LEFT">
    <FONT FACE="Helvetica Italic">CharField</FONT>
    </TD></TR>
  
    <TR><TD ALIGN="LEFT" BORDER="0">
    <FONT FACE="Helvetica ">username</FONT>
    </TD><TD ALIGN="LEFT">
    <FONT FACE="Helvetica ">CharField</FONT>
    </TD></TR>
  
    </TABLE>
    >]

  users_models_CustomUser [label=<
    <TABLE BGCOLOR="palegoldenrod" BORDER="0" CELLBORDER="0" CELLSPACING="0">
    <TR><TD COLSPAN="2" CELLPADDING="4" ALIGN="CENTER" BGCOLOR="olivedrab4">
    <FONT FACE="Helvetica Bold" COLOR="white">
    CustomUser<BR/>&lt;<FONT FACE="Helvetica Italic">AbstractUser,PermissionsMixin</FONT>&gt;
    </FONT></TD></TR>
  
    <TR><TD ALIGN="LEFT" BORDER="0">
    <FONT FACE="Helvetica Bold">id</FONT>
    </TD><TD ALIGN="LEFT">
    <FONT FACE="Helvetica Bold">AutoField</FONT>
    </TD></TR>
  
    <TR><TD ALIGN="LEFT" BORDER="0">
    <FONT FACE="Helvetica Italic">date_joined</FONT>
    </TD><TD ALIGN="LEFT">
    <FONT FACE="Helvetica Italic">DateTimeField</FONT>
    </TD></TR>
  
    <TR><TD ALIGN="LEFT" BORDER="0">
    <FONT FACE="Helvetica ">date_of_birth</FONT>
    </TD><TD ALIGN="LEFT">
    <FONT FACE="Helvetica ">DateField</FONT>
    </TD></TR>
  
    <TR><TD ALIGN="LEFT" BORDER="0">
    <FONT FACE="Helvetica ">email</FONT>
    </TD><TD ALIGN="LEFT">
    <FONT FACE="Helvetica ">EmailField</FONT>
    </TD></TR>
  
    <TR><TD ALIGN="LEFT" BORDER="0">
    <FONT COLOR="#7B7B7B" FACE="Helvetica Italic">first_name</FONT>
    </TD><TD ALIGN="LEFT">
    <FONT COLOR="#7B7B7B" FACE="Helvetica Italic">CharField</FONT>
    </TD></TR>
  
    <TR><TD ALIGN="LEFT" BORDER="0">
    <FONT FACE="Helvetica ">identity_document</FONT>
    </TD><TD ALIGN="LEFT">
    <FONT FACE="Helvetica ">CharField</FONT>
    </TD></TR>
  
    <TR><TD ALIGN="LEFT" BORDER="0">
    <FONT COLOR="#7B7B7B" FACE="Helvetica ">is_active</FONT>
    </TD><TD ALIGN="LEFT">
    <FONT COLOR="#7B7B7B" FACE="Helvetica ">BooleanField</FONT>
    </TD></TR>
  
    <TR><TD ALIGN="LEFT" BORDER="0">
    <FONT COLOR="#7B7B7B" FACE="Helvetica ">is_admin</FONT>
    </TD><TD ALIGN="LEFT">
    <FONT COLOR="#7B7B7B" FACE="Helvetica ">BooleanField</FONT>
    </TD></TR>
  
    <TR><TD ALIGN="LEFT" BORDER="0">
    <FONT COLOR="#7B7B7B" FACE="Helvetica ">is_staff</FONT>
    </TD><TD ALIGN="LEFT">
    <FONT COLOR="#7B7B7B" FACE="Helvetica ">BooleanField</FONT>
    </TD></TR>
  
    <TR><TD ALIGN="LEFT" BORDER="0">
    <FONT COLOR="#7B7B7B" FACE="Helvetica ">is_superuser</FONT>
    </TD><TD ALIGN="LEFT">
    <FONT COLOR="#7B7B7B" FACE="Helvetica ">BooleanField</FONT>
    </TD></TR>
  
    <TR><TD ALIGN="LEFT" BORDER="0">
    <FONT COLOR="#7B7B7B" FACE="Helvetica Italic">last_login</FONT>
    </TD><TD ALIGN="LEFT">
    <FONT COLOR="#7B7B7B" FACE="Helvetica Italic">DateTimeField</FONT>
    </TD></TR>
  
    <TR><TD ALIGN="LEFT" BORDER="0">
    <FONT COLOR="#7B7B7B" FACE="Helvetica Italic">last_name</FONT>
    </TD><TD ALIGN="LEFT">
    <FONT COLOR="#7B7B7B" FACE="Helvetica Italic">CharField</FONT>
    </TD></TR>
  
    <TR><TD ALIGN="LEFT" BORDER="0">
    <FONT FACE="Helvetica Italic">password</FONT>
    </TD><TD ALIGN="LEFT">
    <FONT FACE="Helvetica Italic">CharField</FONT>
    </TD></TR>
  
    <TR><TD ALIGN="LEFT" BORDER="0">
    <FONT FACE="Helvetica Italic">username</FONT>
    </TD><TD ALIGN="LEFT">
    <FONT FACE="Helvetica Italic">CharField</FONT>
    </TD></TR>
  
    </TABLE>
    >]

  users_models_PatientProxy [label=<
    <TABLE BGCOLOR="palegoldenrod" BORDER="0" CELLBORDER="0" CELLSPACING="0">
    <TR><TD COLSPAN="2" CELLPADDING="4" ALIGN="CENTER" BGCOLOR="olivedrab4">
    <FONT FACE="Helvetica Bold" COLOR="white">
    PatientProxy
    </FONT></TD></TR>
  
    </TABLE>
    >]

  users_models_MedicalPersonnelProxy [label=<
    <TABLE BGCOLOR="palegoldenrod" BORDER="0" CELLBORDER="0" CELLSPACING="0">
    <TR><TD COLSPAN="2" CELLPADDING="4" ALIGN="CENTER" BGCOLOR="olivedrab4">
    <FONT FACE="Helvetica Bold" COLOR="white">
    MedicalPersonnelProxy
    </FONT></TD></TR>
  
    </TABLE>
    >]

  users_models_AdministrativePersonnelProxy [label=<
    <TABLE BGCOLOR="palegoldenrod" BORDER="0" CELLBORDER="0" CELLSPACING="0">
    <TR><TD COLSPAN="2" CELLPADDING="4" ALIGN="CENTER" BGCOLOR="olivedrab4">
    <FONT FACE="Helvetica Bold" COLOR="white">
    AdministrativePersonnelProxy
    </FONT></TD></TR>
  
    </TABLE>
    >]

  users_models_PatientManagerProxy [label=<
    <TABLE BGCOLOR="palegoldenrod" BORDER="0" CELLBORDER="0" CELLSPACING="0">
    <TR><TD COLSPAN="2" CELLPADDING="4" ALIGN="CENTER" BGCOLOR="olivedrab4">
    <FONT FACE="Helvetica Bold" COLOR="white">
    PatientManagerProxy
    </FONT></TD></TR>
  
    </TABLE>
    >]

  users_models_InstitutionProxy [label=<
    <TABLE BGCOLOR="palegoldenrod" BORDER="0" CELLBORDER="0" CELLSPACING="0">
    <TR><TD COLSPAN="2" CELLPADDING="4" ALIGN="CENTER" BGCOLOR="olivedrab4">
    <FONT FACE="Helvetica Bold" COLOR="white">
    InstitutionProxy
    </FONT></TD></TR>
  
    </TABLE>
    >]

  users_models_PersonnelManagerProxy [label=<
    <TABLE BGCOLOR="palegoldenrod" BORDER="0" CELLBORDER="0" CELLSPACING="0">
    <TR><TD COLSPAN="2" CELLPADDING="4" ALIGN="CENTER" BGCOLOR="olivedrab4">
    <FONT FACE="Helvetica Bold" COLOR="white">
    PersonnelManagerProxy
    </FONT></TD></TR>
  
    </TABLE>
    >]

  users_models_InstitutionManager [label=<
    <TABLE BGCOLOR="palegoldenrod" BORDER="0" CELLBORDER="0" CELLSPACING="0">
    <TR><TD COLSPAN="2" CELLPADDING="4" ALIGN="CENTER" BGCOLOR="olivedrab4">
    <FONT FACE="Helvetica Bold" COLOR="white">
    InstitutionManager
    </FONT></TD></TR>
  
    </TABLE>
    >]

  users_models_AdminManagerProxy [label=<
    <TABLE BGCOLOR="palegoldenrod" BORDER="0" CELLBORDER="0" CELLSPACING="0">
    <TR><TD COLSPAN="2" CELLPADDING="4" ALIGN="CENTER" BGCOLOR="olivedrab4">
    <FONT FACE="Helvetica Bold" COLOR="white">
    AdminManagerProxy
    </FONT></TD></TR>
  
    </TABLE>
    >]




  patients_models_Patient [label=<
    <TABLE BGCOLOR="palegoldenrod" BORDER="0" CELLBORDER="0" CELLSPACING="0">
    <TR><TD COLSPAN="2" CELLPADDING="4" ALIGN="CENTER" BGCOLOR="olivedrab4">
    <FONT FACE="Helvetica Bold" COLOR="white">
    Patient
    </FONT></TD></TR>
  
    <TR><TD ALIGN="LEFT" BORDER="0">
    <FONT FACE="Helvetica Bold">id</FONT>
    </TD><TD ALIGN="LEFT">
    <FONT FACE="Helvetica Bold">AutoField</FONT>
    </TD></TR>
  
    <TR><TD ALIGN="LEFT" BORDER="0">
    <FONT FACE="Helvetica Bold">user</FONT>
    </TD><TD ALIGN="LEFT">
    <FONT FACE="Helvetica Bold">OneToOneField (id)</FONT>
    </TD></TR>
  
    <TR><TD ALIGN="LEFT" BORDER="0">
    <FONT FACE="Helvetica ">date_of_birth</FONT>
    </TD><TD ALIGN="LEFT">
    <FONT FACE="Helvetica ">DateField</FONT>
    </TD></TR>
  
    <TR><TD ALIGN="LEFT" BORDER="0">
    <FONT FACE="Helvetica ">first_name</FONT>
    </TD><TD ALIGN="LEFT">
    <FONT FACE="Helvetica ">CharField</FONT>
    </TD></TR>
  
    <TR><TD ALIGN="LEFT" BORDER="0">
    <FONT FACE="Helvetica ">gender</FONT>
    </TD><TD ALIGN="LEFT">
    <FONT FACE="Helvetica ">CharField</FONT>
    </TD></TR>
  
    <TR><TD ALIGN="LEFT" BORDER="0">
    <FONT COLOR="#7B7B7B" FACE="Helvetica ">home_address</FONT>
    </TD><TD ALIGN="LEFT">
    <FONT COLOR="#7B7B7B" FACE="Helvetica ">TextField</FONT>
    </TD></TR>
  
    <TR><TD ALIGN="LEFT" BORDER="0">
    <FONT COLOR="#7B7B7B" FACE="Helvetica ">identity_document</FONT>
    </TD><TD ALIGN="LEFT">
    <FONT COLOR="#7B7B7B" FACE="Helvetica ">CharField</FONT>
    </TD></TR>
  
    <TR><TD ALIGN="LEFT" BORDER="0">
    <FONT FACE="Helvetica ">last_name</FONT>
    </TD><TD ALIGN="LEFT">
    <FONT FACE="Helvetica ">CharField</FONT>
    </TD></TR>
  
    <TR><TD ALIGN="LEFT" BORDER="0">
    <FONT COLOR="#7B7B7B" FACE="Helvetica ">nationality</FONT>
    </TD><TD ALIGN="LEFT">
    <FONT COLOR="#7B7B7B" FACE="Helvetica ">CharField</FONT>
    </TD></TR>
  
    <TR><TD ALIGN="LEFT" BORDER="0">
    <FONT COLOR="#7B7B7B" FACE="Helvetica ">occupation</FONT>
    </TD><TD ALIGN="LEFT">
    <FONT COLOR="#7B7B7B" FACE="Helvetica ">TextField</FONT>
    </TD></TR>
  
    <TR><TD ALIGN="LEFT" BORDER="0">
    <FONT COLOR="#7B7B7B" FACE="Helvetica ">phone_number</FONT>
    </TD><TD ALIGN="LEFT">
    <FONT COLOR="#7B7B7B" FACE="Helvetica ">CharField</FONT>
    </TD></TR>
  
    </TABLE>
    >]




  advancedirectives_models_SupportingDocument [label=<
    <TABLE BGCOLOR="palegoldenrod" BORDER="0" CELLBORDER="0" CELLSPACING="0">
    <TR><TD COLSPAN="2" CELLPADDING="4" ALIGN="CENTER" BGCOLOR="olivedrab4">
    <FONT FACE="Helvetica Bold" COLOR="white">
    SupportingDocument
    </FONT></TD></TR>
  
    <TR><TD ALIGN="LEFT" BORDER="0">
    <FONT FACE="Helvetica Bold">id</FONT>
    </TD><TD ALIGN="LEFT">
    <FONT FACE="Helvetica Bold">AutoField</FONT>
    </TD></TR>
  
    <TR><TD ALIGN="LEFT" BORDER="0">
    <FONT FACE="Helvetica ">document</FONT>
    </TD><TD ALIGN="LEFT">
    <FONT FACE="Helvetica ">FileField</FONT>
    </TD></TR>
  
    </TABLE>
    >]

  advancedirectives_models_AdvancedDirective [label=<
    <TABLE BGCOLOR="palegoldenrod" BORDER="0" CELLBORDER="0" CELLSPACING="0">
    <TR><TD COLSPAN="2" CELLPADDING="4" ALIGN="CENTER" BGCOLOR="olivedrab4">
    <FONT FACE="Helvetica Bold" COLOR="white">
    AdvancedDirective
    </FONT></TD></TR>
  
    <TR><TD ALIGN="LEFT" BORDER="0">
    <FONT FACE="Helvetica Bold">id</FONT>
    </TD><TD ALIGN="LEFT">
    <FONT FACE="Helvetica Bold">AutoField</FONT>
    </TD></TR>
  
    <TR><TD ALIGN="LEFT" BORDER="0">
    <FONT FACE="Helvetica Bold">patient</FONT>
    </TD><TD ALIGN="LEFT">
    <FONT FACE="Helvetica Bold">ForeignKey (id)</FONT>
    </TD></TR>
  
    <TR><TD ALIGN="LEFT" BORDER="0">
    <FONT FACE="Helvetica Bold">supporting_document</FONT>
    </TD><TD ALIGN="LEFT">
    <FONT FACE="Helvetica Bold">ForeignKey (id)</FONT>
    </TD></TR>
  
    <TR><TD ALIGN="LEFT" BORDER="0">
    <FONT FACE="Helvetica ">code</FONT>
    </TD><TD ALIGN="LEFT">
    <FONT FACE="Helvetica ">CharField</FONT>
    </TD></TR>
  
    <TR><TD ALIGN="LEFT" BORDER="0">
    <FONT FACE="Helvetica ">description</FONT>
    </TD><TD ALIGN="LEFT">
    <FONT FACE="Helvetica ">CharField</FONT>
    </TD></TR>
  
    <TR><TD ALIGN="LEFT" BORDER="0">
    <FONT FACE="Helvetica ">directive</FONT>
    </TD><TD ALIGN="LEFT">
    <FONT FACE="Helvetica ">CharField</FONT>
    </TD></TR>
  
    <TR><TD ALIGN="LEFT" BORDER="0">
    <FONT FACE="Helvetica ">verification</FONT>
    </TD><TD ALIGN="LEFT">
    <FONT FACE="Helvetica ">CharField</FONT>
    </TD></TR>
  
    </TABLE>
    >]




  functionalstatus_models_FunctionalCondition [label=<
    <TABLE BGCOLOR="palegoldenrod" BORDER="0" CELLBORDER="0" CELLSPACING="0">
    <TR><TD COLSPAN="2" CELLPADDING="4" ALIGN="CENTER" BGCOLOR="olivedrab4">
    <FONT FACE="Helvetica Bold" COLOR="white">
    FunctionalCondition
    </FONT></TD></TR>
  
    <TR><TD ALIGN="LEFT" BORDER="0">
    <FONT FACE="Helvetica Bold">id</FONT>
    </TD><TD ALIGN="LEFT">
    <FONT FACE="Helvetica Bold">AutoField</FONT>
    </TD></TR>
  
    <TR><TD ALIGN="LEFT" BORDER="0">
    <FONT FACE="Helvetica ">name</FONT>
    </TD><TD ALIGN="LEFT">
    <FONT FACE="Helvetica ">CharField</FONT>
    </TD></TR>
  
    </TABLE>
    >]

  functionalstatus_models_FunctionalStatus [label=<
    <TABLE BGCOLOR="palegoldenrod" BORDER="0" CELLBORDER="0" CELLSPACING="0">
    <TR><TD COLSPAN="2" CELLPADDING="4" ALIGN="CENTER" BGCOLOR="olivedrab4">
    <FONT FACE="Helvetica Bold" COLOR="white">
    FunctionalStatus
    </FONT></TD></TR>
  
    <TR><TD ALIGN="LEFT" BORDER="0">
    <FONT FACE="Helvetica Bold">id</FONT>
    </TD><TD ALIGN="LEFT">
    <FONT FACE="Helvetica Bold">AutoField</FONT>
    </TD></TR>
  
    <TR><TD ALIGN="LEFT" BORDER="0">
    <FONT FACE="Helvetica ">condition_status</FONT>
    </TD><TD ALIGN="LEFT">
    <FONT FACE="Helvetica ">CharField</FONT>
    </TD></TR>
  
    <TR><TD ALIGN="LEFT" BORDER="0">
    <FONT FACE="Helvetica ">effective_dates</FONT>
    </TD><TD ALIGN="LEFT">
    <FONT FACE="Helvetica ">CharField</FONT>
    </TD></TR>
  
    <TR><TD ALIGN="LEFT" BORDER="0">
    <FONT FACE="Helvetica ">functional_condition</FONT>
    </TD><TD ALIGN="LEFT">
    <FONT FACE="Helvetica ">CharField</FONT>
    </TD></TR>
  
    </TABLE>
    >]




  problems_models_Condition [label=<
    <TABLE BGCOLOR="palegoldenrod" BORDER="0" CELLBORDER="0" CELLSPACING="0">
    <TR><TD COLSPAN="2" CELLPADDING="4" ALIGN="CENTER" BGCOLOR="olivedrab4">
    <FONT FACE="Helvetica Bold" COLOR="white">
    Condition
    </FONT></TD></TR>
  
    <TR><TD ALIGN="LEFT" BORDER="0">
    <FONT FACE="Helvetica Bold">id</FONT>
    </TD><TD ALIGN="LEFT">
    <FONT FACE="Helvetica Bold">AutoField</FONT>
    </TD></TR>
  
    <TR><TD ALIGN="LEFT" BORDER="0">
    <FONT FACE="Helvetica ">code</FONT>
    </TD><TD ALIGN="LEFT">
    <FONT FACE="Helvetica ">CharField</FONT>
    </TD></TR>
  
    <TR><TD ALIGN="LEFT" BORDER="0">
    <FONT FACE="Helvetica ">name</FONT>
    </TD><TD ALIGN="LEFT">
    <FONT FACE="Helvetica ">CharField</FONT>
    </TD></TR>
  
    </TABLE>
    >]

  problems_models_Problem [label=<
    <TABLE BGCOLOR="palegoldenrod" BORDER="0" CELLBORDER="0" CELLSPACING="0">
    <TR><TD COLSPAN="2" CELLPADDING="4" ALIGN="CENTER" BGCOLOR="olivedrab4">
    <FONT FACE="Helvetica Bold" COLOR="white">
    Problem
    </FONT></TD></TR>
  
    <TR><TD ALIGN="LEFT" BORDER="0">
    <FONT FACE="Helvetica Bold">id</FONT>
    </TD><TD ALIGN="LEFT">
    <FONT FACE="Helvetica Bold">AutoField</FONT>
    </TD></TR>
  
    <TR><TD ALIGN="LEFT" BORDER="0">
    <FONT FACE="Helvetica Bold">patient</FONT>
    </TD><TD ALIGN="LEFT">
    <FONT FACE="Helvetica Bold">ForeignKey (id)</FONT>
    </TD></TR>
  
    <TR><TD ALIGN="LEFT" BORDER="0">
    <FONT FACE="Helvetica ">condition</FONT>
    </TD><TD ALIGN="LEFT">
    <FONT FACE="Helvetica ">CharField</FONT>
    </TD></TR>
  
    <TR><TD ALIGN="LEFT" BORDER="0">
    <FONT COLOR="#7B7B7B" FACE="Helvetica ">condition_code</FONT>
    </TD><TD ALIGN="LEFT">
    <FONT COLOR="#7B7B7B" FACE="Helvetica ">CharField</FONT>
    </TD></TR>
  
    <TR><TD ALIGN="LEFT" BORDER="0">
    <FONT FACE="Helvetica ">condition_status</FONT>
    </TD><TD ALIGN="LEFT">
    <FONT FACE="Helvetica ">CharField</FONT>
    </TD></TR>
  
    <TR><TD ALIGN="LEFT" BORDER="0">
    <FONT COLOR="#7B7B7B" FACE="Helvetica ">effective_dates</FONT>
    </TD><TD ALIGN="LEFT">
    <FONT COLOR="#7B7B7B" FACE="Helvetica ">CharField</FONT>
    </TD></TR>
  
    </TABLE>
    >]




  familyhistory_models_Diagnosis [label=<
    <TABLE BGCOLOR="palegoldenrod" BORDER="0" CELLBORDER="0" CELLSPACING="0">
    <TR><TD COLSPAN="2" CELLPADDING="4" ALIGN="CENTER" BGCOLOR="olivedrab4">
    <FONT FACE="Helvetica Bold" COLOR="white">
    Diagnosis
    </FONT></TD></TR>
  
    <TR><TD ALIGN="LEFT" BORDER="0">
    <FONT FACE="Helvetica Bold">id</FONT>
    </TD><TD ALIGN="LEFT">
    <FONT FACE="Helvetica Bold">AutoField</FONT>
    </TD></TR>
  
    <TR><TD ALIGN="LEFT" BORDER="0">
    <FONT FACE="Helvetica ">code</FONT>
    </TD><TD ALIGN="LEFT">
    <FONT FACE="Helvetica ">CharField</FONT>
    </TD></TR>
  
    <TR><TD ALIGN="LEFT" BORDER="0">
    <FONT FACE="Helvetica ">name</FONT>
    </TD><TD ALIGN="LEFT">
    <FONT FACE="Helvetica ">CharField</FONT>
    </TD></TR>
  
    </TABLE>
    >]

  familyhistory_models_Relation [label=<
    <TABLE BGCOLOR="palegoldenrod" BORDER="0" CELLBORDER="0" CELLSPACING="0">
    <TR><TD COLSPAN="2" CELLPADDING="4" ALIGN="CENTER" BGCOLOR="olivedrab4">
    <FONT FACE="Helvetica Bold" COLOR="white">
    Relation
    </FONT></TD></TR>
  
    <TR><TD ALIGN="LEFT" BORDER="0">
    <FONT FACE="Helvetica Bold">id</FONT>
    </TD><TD ALIGN="LEFT">
    <FONT FACE="Helvetica Bold">AutoField</FONT>
    </TD></TR>
  
    <TR><TD ALIGN="LEFT" BORDER="0">
    <FONT FACE="Helvetica ">name</FONT>
    </TD><TD ALIGN="LEFT">
    <FONT FACE="Helvetica ">CharField</FONT>
    </TD></TR>
  
    </TABLE>
    >]

  familyhistory_models_Relative [label=<
    <TABLE BGCOLOR="palegoldenrod" BORDER="0" CELLBORDER="0" CELLSPACING="0">
    <TR><TD COLSPAN="2" CELLPADDING="4" ALIGN="CENTER" BGCOLOR="olivedrab4">
    <FONT FACE="Helvetica Bold" COLOR="white">
    Relative
    </FONT></TD></TR>
  
    <TR><TD ALIGN="LEFT" BORDER="0">
    <FONT FACE="Helvetica Bold">id</FONT>
    </TD><TD ALIGN="LEFT">
    <FONT FACE="Helvetica Bold">AutoField</FONT>
    </TD></TR>
  
    <TR><TD ALIGN="LEFT" BORDER="0">
    <FONT FACE="Helvetica Bold">relation</FONT>
    </TD><TD ALIGN="LEFT">
    <FONT FACE="Helvetica Bold">ForeignKey (id)</FONT>
    </TD></TR>
  
    <TR><TD ALIGN="LEFT" BORDER="0">
    <FONT FACE="Helvetica ">first_name</FONT>
    </TD><TD ALIGN="LEFT">
    <FONT FACE="Helvetica ">CharField</FONT>
    </TD></TR>
  
    <TR><TD ALIGN="LEFT" BORDER="0">
    <FONT FACE="Helvetica ">last_name</FONT>
    </TD><TD ALIGN="LEFT">
    <FONT FACE="Helvetica ">CharField</FONT>
    </TD></TR>
  
    </TABLE>
    >]

  familyhistory_models_FamilyHistory [label=<
    <TABLE BGCOLOR="palegoldenrod" BORDER="0" CELLBORDER="0" CELLSPACING="0">
    <TR><TD COLSPAN="2" CELLPADDING="4" ALIGN="CENTER" BGCOLOR="olivedrab4">
    <FONT FACE="Helvetica Bold" COLOR="white">
    FamilyHistory
    </FONT></TD></TR>
  
    <TR><TD ALIGN="LEFT" BORDER="0">
    <FONT FACE="Helvetica Bold">id</FONT>
    </TD><TD ALIGN="LEFT">
    <FONT FACE="Helvetica Bold">AutoField</FONT>
    </TD></TR>
  
    <TR><TD ALIGN="LEFT" BORDER="0">
    <FONT FACE="Helvetica Bold">patient</FONT>
    </TD><TD ALIGN="LEFT">
    <FONT FACE="Helvetica Bold">ForeignKey (id)</FONT>
    </TD></TR>
  
    <TR><TD ALIGN="LEFT" BORDER="0">
    <FONT FACE="Helvetica Bold">relative</FONT>
    </TD><TD ALIGN="LEFT">
    <FONT FACE="Helvetica Bold">ForeignKey (id)</FONT>
    </TD></TR>
  
    <TR><TD ALIGN="LEFT" BORDER="0">
    <FONT FACE="Helvetica ">age_at_onset</FONT>
    </TD><TD ALIGN="LEFT">
    <FONT FACE="Helvetica ">CharField</FONT>
    </TD></TR>
  
    <TR><TD ALIGN="LEFT" BORDER="0">
    <FONT FACE="Helvetica ">diagnosis</FONT>
    </TD><TD ALIGN="LEFT">
    <FONT FACE="Helvetica ">CharField</FONT>
    </TD></TR>
  
    <TR><TD ALIGN="LEFT" BORDER="0">
    <FONT FACE="Helvetica ">diagnosis_code</FONT>
    </TD><TD ALIGN="LEFT">
    <FONT FACE="Helvetica ">CharField</FONT>
    </TD></TR>
  
    </TABLE>
    >]




  socialhistory_models_SocialHistoryElement [label=<
    <TABLE BGCOLOR="palegoldenrod" BORDER="0" CELLBORDER="0" CELLSPACING="0">
    <TR><TD COLSPAN="2" CELLPADDING="4" ALIGN="CENTER" BGCOLOR="olivedrab4">
    <FONT FACE="Helvetica Bold" COLOR="white">
    SocialHistoryElement
    </FONT></TD></TR>
  
    <TR><TD ALIGN="LEFT" BORDER="0">
    <FONT FACE="Helvetica Bold">id</FONT>
    </TD><TD ALIGN="LEFT">
    <FONT FACE="Helvetica Bold">AutoField</FONT>
    </TD></TR>
  
    <TR><TD ALIGN="LEFT" BORDER="0">
    <FONT FACE="Helvetica ">name</FONT>
    </TD><TD ALIGN="LEFT">
    <FONT FACE="Helvetica ">CharField</FONT>
    </TD></TR>
  
    </TABLE>
    >]

  socialhistory_models_SocialHistory [label=<
    <TABLE BGCOLOR="palegoldenrod" BORDER="0" CELLBORDER="0" CELLSPACING="0">
    <TR><TD COLSPAN="2" CELLPADDING="4" ALIGN="CENTER" BGCOLOR="olivedrab4">
    <FONT FACE="Helvetica Bold" COLOR="white">
    SocialHistory
    </FONT></TD></TR>
  
    <TR><TD ALIGN="LEFT" BORDER="0">
    <FONT FACE="Helvetica Bold">id</FONT>
    </TD><TD ALIGN="LEFT">
    <FONT FACE="Helvetica Bold">AutoField</FONT>
    </TD></TR>
  
    <TR><TD ALIGN="LEFT" BORDER="0">
    <FONT FACE="Helvetica ">description</FONT>
    </TD><TD ALIGN="LEFT">
    <FONT FACE="Helvetica ">CharField</FONT>
    </TD></TR>
  
    <TR><TD ALIGN="LEFT" BORDER="0">
    <FONT FACE="Helvetica ">effective_dates</FONT>
    </TD><TD ALIGN="LEFT">
    <FONT FACE="Helvetica ">CharField</FONT>
    </TD></TR>
  
    <TR><TD ALIGN="LEFT" BORDER="0">
    <FONT FACE="Helvetica ">social_history_element</FONT>
    </TD><TD ALIGN="LEFT">
    <FONT FACE="Helvetica ">CharField</FONT>
    </TD></TR>
  
    </TABLE>
    >]




  allergiesadversereactionsalerts_models_Substance [label=<
    <TABLE BGCOLOR="palegoldenrod" BORDER="0" CELLBORDER="0" CELLSPACING="0">
    <TR><TD COLSPAN="2" CELLPADDING="4" ALIGN="CENTER" BGCOLOR="olivedrab4">
    <FONT FACE="Helvetica Bold" COLOR="white">
    Substance
    </FONT></TD></TR>
  
    <TR><TD ALIGN="LEFT" BORDER="0">
    <FONT FACE="Helvetica Bold">id</FONT>
    </TD><TD ALIGN="LEFT">
    <FONT FACE="Helvetica Bold">AutoField</FONT>
    </TD></TR>
  
    <TR><TD ALIGN="LEFT" BORDER="0">
    <FONT FACE="Helvetica ">code</FONT>
    </TD><TD ALIGN="LEFT">
    <FONT FACE="Helvetica ">CharField</FONT>
    </TD></TR>
  
    <TR><TD ALIGN="LEFT" BORDER="0">
    <FONT FACE="Helvetica ">name</FONT>
    </TD><TD ALIGN="LEFT">
    <FONT FACE="Helvetica ">CharField</FONT>
    </TD></TR>
  
    </TABLE>
    >]

  allergiesadversereactionsalerts_models_Reaction [label=<
    <TABLE BGCOLOR="palegoldenrod" BORDER="0" CELLBORDER="0" CELLSPACING="0">
    <TR><TD COLSPAN="2" CELLPADDING="4" ALIGN="CENTER" BGCOLOR="olivedrab4">
    <FONT FACE="Helvetica Bold" COLOR="white">
    Reaction
    </FONT></TD></TR>
  
    <TR><TD ALIGN="LEFT" BORDER="0">
    <FONT FACE="Helvetica Bold">id</FONT>
    </TD><TD ALIGN="LEFT">
    <FONT FACE="Helvetica Bold">AutoField</FONT>
    </TD></TR>
  
    <TR><TD ALIGN="LEFT" BORDER="0">
    <FONT FACE="Helvetica ">name</FONT>
    </TD><TD ALIGN="LEFT">
    <FONT FACE="Helvetica ">CharField</FONT>
    </TD></TR>
  
    </TABLE>
    >]

  allergiesadversereactionsalerts_models_AllergiesAdverseReactionAlert [label=<
    <TABLE BGCOLOR="palegoldenrod" BORDER="0" CELLBORDER="0" CELLSPACING="0">
    <TR><TD COLSPAN="2" CELLPADDING="4" ALIGN="CENTER" BGCOLOR="olivedrab4">
    <FONT FACE="Helvetica Bold" COLOR="white">
    AllergiesAdverseReactionAlert
    </FONT></TD></TR>
  
    <TR><TD ALIGN="LEFT" BORDER="0">
    <FONT FACE="Helvetica Bold">id</FONT>
    </TD><TD ALIGN="LEFT">
    <FONT FACE="Helvetica Bold">AutoField</FONT>
    </TD></TR>
  
    <TR><TD ALIGN="LEFT" BORDER="0">
    <FONT FACE="Helvetica Bold">patient</FONT>
    </TD><TD ALIGN="LEFT">
    <FONT FACE="Helvetica Bold">ForeignKey (id)</FONT>
    </TD></TR>
  
    <TR><TD ALIGN="LEFT" BORDER="0">
    <FONT FACE="Helvetica ">reaction</FONT>
    </TD><TD ALIGN="LEFT">
    <FONT FACE="Helvetica ">CharField</FONT>
    </TD></TR>
  
    <TR><TD ALIGN="LEFT" BORDER="0">
    <FONT FACE="Helvetica ">status</FONT>
    </TD><TD ALIGN="LEFT">
    <FONT FACE="Helvetica ">CharField</FONT>
    </TD></TR>
  
    <TR><TD ALIGN="LEFT" BORDER="0">
    <FONT FACE="Helvetica ">substance</FONT>
    </TD><TD ALIGN="LEFT">
    <FONT FACE="Helvetica ">CharField</FONT>
    </TD></TR>
  
    <TR><TD ALIGN="LEFT" BORDER="0">
    <FONT FACE="Helvetica ">substance_code</FONT>
    </TD><TD ALIGN="LEFT">
    <FONT FACE="Helvetica ">CharField</FONT>
    </TD></TR>
  
    </TABLE>
    >]




  medications_models_MedicationName [label=<
    <TABLE BGCOLOR="palegoldenrod" BORDER="0" CELLBORDER="0" CELLSPACING="0">
    <TR><TD COLSPAN="2" CELLPADDING="4" ALIGN="CENTER" BGCOLOR="olivedrab4">
    <FONT FACE="Helvetica Bold" COLOR="white">
    MedicationName
    </FONT></TD></TR>
  
    <TR><TD ALIGN="LEFT" BORDER="0">
    <FONT FACE="Helvetica Bold">id</FONT>
    </TD><TD ALIGN="LEFT">
    <FONT FACE="Helvetica Bold">AutoField</FONT>
    </TD></TR>
  
    <TR><TD ALIGN="LEFT" BORDER="0">
    <FONT FACE="Helvetica ">name</FONT>
    </TD><TD ALIGN="LEFT">
    <FONT FACE="Helvetica ">CharField</FONT>
    </TD></TR>
  
    </TABLE>
    >]

  medications_models_Medication [label=<
    <TABLE BGCOLOR="palegoldenrod" BORDER="0" CELLBORDER="0" CELLSPACING="0">
    <TR><TD COLSPAN="2" CELLPADDING="4" ALIGN="CENTER" BGCOLOR="olivedrab4">
    <FONT FACE="Helvetica Bold" COLOR="white">
    Medication
    </FONT></TD></TR>
  
    <TR><TD ALIGN="LEFT" BORDER="0">
    <FONT FACE="Helvetica Bold">id</FONT>
    </TD><TD ALIGN="LEFT">
    <FONT FACE="Helvetica Bold">AutoField</FONT>
    </TD></TR>
  
    <TR><TD ALIGN="LEFT" BORDER="0">
    <FONT FACE="Helvetica Bold">patient</FONT>
    </TD><TD ALIGN="LEFT">
    <FONT FACE="Helvetica Bold">ForeignKey (id)</FONT>
    </TD></TR>
  
    <TR><TD ALIGN="LEFT" BORDER="0">
    <FONT FACE="Helvetica ">instructions</FONT>
    </TD><TD ALIGN="LEFT">
    <FONT FACE="Helvetica ">CharField</FONT>
    </TD></TR>
  
    <TR><TD ALIGN="LEFT" BORDER="0">
    <FONT FACE="Helvetica ">medication</FONT>
    </TD><TD ALIGN="LEFT">
    <FONT FACE="Helvetica ">CharField</FONT>
    </TD></TR>
  
    <TR><TD ALIGN="LEFT" BORDER="0">
    <FONT FACE="Helvetica ">status</FONT>
    </TD><TD ALIGN="LEFT">
    <FONT FACE="Helvetica ">DateField</FONT>
    </TD></TR>
  
    </TABLE>
    >]




  procedures_models_ProcedureNameCode [label=<
    <TABLE BGCOLOR="palegoldenrod" BORDER="0" CELLBORDER="0" CELLSPACING="0">
    <TR><TD COLSPAN="2" CELLPADDING="4" ALIGN="CENTER" BGCOLOR="olivedrab4">
    <FONT FACE="Helvetica Bold" COLOR="white">
    ProcedureNameCode
    </FONT></TD></TR>
  
    <TR><TD ALIGN="LEFT" BORDER="0">
    <FONT FACE="Helvetica Bold">id</FONT>
    </TD><TD ALIGN="LEFT">
    <FONT FACE="Helvetica Bold">AutoField</FONT>
    </TD></TR>
  
    <TR><TD ALIGN="LEFT" BORDER="0">
    <FONT FACE="Helvetica ">code</FONT>
    </TD><TD ALIGN="LEFT">
    <FONT FACE="Helvetica ">CharField</FONT>
    </TD></TR>
  
    <TR><TD ALIGN="LEFT" BORDER="0">
    <FONT FACE="Helvetica ">name</FONT>
    </TD><TD ALIGN="LEFT">
    <FONT FACE="Helvetica ">CharField</FONT>
    </TD></TR>
  
    </TABLE>
    >]

  procedures_models_Procedure [label=<
    <TABLE BGCOLOR="palegoldenrod" BORDER="0" CELLBORDER="0" CELLSPACING="0">
    <TR><TD COLSPAN="2" CELLPADDING="4" ALIGN="CENTER" BGCOLOR="olivedrab4">
    <FONT FACE="Helvetica Bold" COLOR="white">
    Procedure
    </FONT></TD></TR>
  
    <TR><TD ALIGN="LEFT" BORDER="0">
    <FONT FACE="Helvetica Bold">id</FONT>
    </TD><TD ALIGN="LEFT">
    <FONT FACE="Helvetica Bold">AutoField</FONT>
    </TD></TR>
  
    <TR><TD ALIGN="LEFT" BORDER="0">
    <FONT FACE="Helvetica Bold">patient</FONT>
    </TD><TD ALIGN="LEFT">
    <FONT FACE="Helvetica Bold">ForeignKey (id)</FONT>
    </TD></TR>
  
    <TR><TD ALIGN="LEFT" BORDER="0">
    <FONT FACE="Helvetica ">date</FONT>
    </TD><TD ALIGN="LEFT">
    <FONT FACE="Helvetica ">DateField</FONT>
    </TD></TR>
  
    <TR><TD ALIGN="LEFT" BORDER="0">
    <FONT FACE="Helvetica ">procedure</FONT>
    </TD><TD ALIGN="LEFT">
    <FONT FACE="Helvetica ">CharField</FONT>
    </TD></TR>
  
    <TR><TD ALIGN="LEFT" BORDER="0">
    <FONT FACE="Helvetica ">procedure_code</FONT>
    </TD><TD ALIGN="LEFT">
    <FONT FACE="Helvetica ">CharField</FONT>
    </TD></TR>
  
    </TABLE>
    >]




  encounters_models_EncounterName [label=<
    <TABLE BGCOLOR="palegoldenrod" BORDER="0" CELLBORDER="0" CELLSPACING="0">
    <TR><TD COLSPAN="2" CELLPADDING="4" ALIGN="CENTER" BGCOLOR="olivedrab4">
    <FONT FACE="Helvetica Bold" COLOR="white">
    EncounterName
    </FONT></TD></TR>
  
    <TR><TD ALIGN="LEFT" BORDER="0">
    <FONT FACE="Helvetica Bold">id</FONT>
    </TD><TD ALIGN="LEFT">
    <FONT FACE="Helvetica Bold">AutoField</FONT>
    </TD></TR>
  
    <TR><TD ALIGN="LEFT" BORDER="0">
    <FONT FACE="Helvetica ">name</FONT>
    </TD><TD ALIGN="LEFT">
    <FONT FACE="Helvetica ">CharField</FONT>
    </TD></TR>
  
    </TABLE>
    >]

  encounters_models_Location [label=<
    <TABLE BGCOLOR="palegoldenrod" BORDER="0" CELLBORDER="0" CELLSPACING="0">
    <TR><TD COLSPAN="2" CELLPADDING="4" ALIGN="CENTER" BGCOLOR="olivedrab4">
    <FONT FACE="Helvetica Bold" COLOR="white">
    Location
    </FONT></TD></TR>
  
    <TR><TD ALIGN="LEFT" BORDER="0">
    <FONT FACE="Helvetica Bold">id</FONT>
    </TD><TD ALIGN="LEFT">
    <FONT FACE="Helvetica Bold">AutoField</FONT>
    </TD></TR>
  
    <TR><TD ALIGN="LEFT" BORDER="0">
    <FONT FACE="Helvetica ">name</FONT>
    </TD><TD ALIGN="LEFT">
    <FONT FACE="Helvetica ">CharField</FONT>
    </TD></TR>
  
    </TABLE>
    >]

  encounters_models_Encounter [label=<
    <TABLE BGCOLOR="palegoldenrod" BORDER="0" CELLBORDER="0" CELLSPACING="0">
    <TR><TD COLSPAN="2" CELLPADDING="4" ALIGN="CENTER" BGCOLOR="olivedrab4">
    <FONT FACE="Helvetica Bold" COLOR="white">
    Encounter
    </FONT></TD></TR>
  
    <TR><TD ALIGN="LEFT" BORDER="0">
    <FONT FACE="Helvetica Bold">id</FONT>
    </TD><TD ALIGN="LEFT">
    <FONT FACE="Helvetica Bold">AutoField</FONT>
    </TD></TR>
  
    <TR><TD ALIGN="LEFT" BORDER="0">
    <FONT FACE="Helvetica ">date</FONT>
    </TD><TD ALIGN="LEFT">
    <FONT FACE="Helvetica ">DateField</FONT>
    </TD></TR>
  
    <TR><TD ALIGN="LEFT" BORDER="0">
    <FONT FACE="Helvetica ">encounter</FONT>
    </TD><TD ALIGN="LEFT">
    <FONT FACE="Helvetica ">CharField</FONT>
    </TD></TR>
  
    <TR><TD ALIGN="LEFT" BORDER="0">
    <FONT FACE="Helvetica ">location</FONT>
    </TD><TD ALIGN="LEFT">
    <FONT FACE="Helvetica ">CharField</FONT>
    </TD></TR>
  
    </TABLE>
    >]




  // Relations

  django_contrib_admin_models_LogEntry -> users_models_CustomUser
  [label="user (b&#39;logentry&#39;)"] [arrowhead=none, arrowtail=dot, dir=both];

  django_contrib_admin_models_LogEntry -> django_contrib_contenttypes_models_ContentType
  [label="content_type (b&#39;logentry&#39;)"] [arrowhead=none, arrowtail=dot, dir=both];

  django_contrib_auth_models_Permission -> django_contrib_contenttypes_models_ContentType
  [label="content_type (b&#39;permission&#39;)"] [arrowhead=none, arrowtail=dot, dir=both];

  django_contrib_auth_models_Group -> django_contrib_auth_models_Permission
  [label="permissions (b&#39;group&#39;)"] [arrowhead=dot arrowtail=dot, dir=both];

  django_contrib_sessions_models_Session -> django_contrib_sessions_base_session_AbstractBaseSession
  [label="abstract\ninheritance"] [arrowhead=empty, arrowtail=none, dir=both];

  guardian_models_GroupObjectPermissionBase -> django_contrib_auth_models_Group
  [label="group (b&#39;groupobjectpermissionbase&#39;)"] [arrowhead=none, arrowtail=dot, dir=both];
  guardian_models_BaseObjectPermission [label=<
  <TABLE BGCOLOR="palegoldenrod" BORDER="0" CELLBORDER="0" CELLSPACING="0">
  <TR><TD COLSPAN="2" CELLPADDING="4" ALIGN="CENTER" BGCOLOR="olivedrab4">
  <FONT FACE="Helvetica Bold" COLOR="white">BaseObjectPermission</FONT>
  </TD></TR>
  </TABLE>
  >]
  guardian_models_GroupObjectPermissionBase -> guardian_models_BaseObjectPermission
  [label="abstract\ninheritance"] [arrowhead=empty, arrowtail=none, dir=both];

  guardian_models_BaseGenericObjectPermission -> django_contrib_contenttypes_models_ContentType
  [label="content_type (b&#39;basegenericobjectpermission&#39;)"] [arrowhead=none, arrowtail=dot, dir=both];

  guardian_models_UserObjectPermissionBase -> users_models_CustomUser
  [label="user (b&#39;userobjectpermissionbase&#39;)"] [arrowhead=none, arrowtail=dot, dir=both];
  guardian_models_BaseObjectPermission [label=<
  <TABLE BGCOLOR="palegoldenrod" BORDER="0" CELLBORDER="0" CELLSPACING="0">
  <TR><TD COLSPAN="2" CELLPADDING="4" ALIGN="CENTER" BGCOLOR="olivedrab4">
  <FONT FACE="Helvetica Bold" COLOR="white">BaseObjectPermission</FONT>
  </TD></TR>
  </TABLE>
  >]
  guardian_models_UserObjectPermissionBase -> guardian_models_BaseObjectPermission
  [label="abstract\ninheritance"] [arrowhead=empty, arrowtail=none, dir=both];

  guardian_models_UserObjectPermission -> guardian_models_UserObjectPermissionBase
  [label="abstract\ninheritance"] [arrowhead=empty, arrowtail=none, dir=both];

  guardian_models_UserObjectPermission -> guardian_models_BaseGenericObjectPermission
  [label="abstract\ninheritance"] [arrowhead=empty, arrowtail=none, dir=both];

  guardian_models_GroupObjectPermission -> guardian_models_GroupObjectPermissionBase
  [label="abstract\ninheritance"] [arrowhead=empty, arrowtail=none, dir=both];

  guardian_models_GroupObjectPermission -> guardian_models_BaseGenericObjectPermission
  [label="abstract\ninheritance"] [arrowhead=empty, arrowtail=none, dir=both];
  django_contrib_auth_base_user_AbstractBaseUser [label=<
  <TABLE BGCOLOR="palegoldenrod" BORDER="0" CELLBORDER="0" CELLSPACING="0">
  <TR><TD COLSPAN="2" CELLPADDING="4" ALIGN="CENTER" BGCOLOR="olivedrab4">
  <FONT FACE="Helvetica Bold" COLOR="white">AbstractBaseUser</FONT>
  </TD></TR>
  </TABLE>
  >]
  django_contrib_auth_models_AbstractUser -> django_contrib_auth_base_user_AbstractBaseUser
  [label="abstract\ninheritance"] [arrowhead=empty, arrowtail=none, dir=both];

  django_contrib_auth_models_AbstractUser -> django_contrib_auth_models_PermissionsMixin
  [label="abstract\ninheritance"] [arrowhead=empty, arrowtail=none, dir=both];

  users_models_CustomUser -> django_contrib_auth_models_Group
  [label="groups (b&#39;user&#39;)"] [arrowhead=dot arrowtail=dot, dir=both];

  users_models_CustomUser -> django_contrib_auth_models_Permission
  [label="user_permissions (b&#39;user&#39;)"] [arrowhead=dot arrowtail=dot, dir=both];

  users_models_CustomUser -> django_contrib_auth_models_AbstractUser
  [label="abstract\ninheritance"] [arrowhead=empty, arrowtail=none, dir=both];

  users_models_CustomUser -> django_contrib_auth_models_PermissionsMixin
  [label="abstract\ninheritance"] [arrowhead=empty, arrowtail=none, dir=both];

  users_models_PatientProxy -> users_models_CustomUser
  [label="proxy\ninheritance"] [arrowhead=empty, arrowtail=none, dir=both];

  users_models_MedicalPersonnelProxy -> users_models_CustomUser
  [label="proxy\ninheritance"] [arrowhead=empty, arrowtail=none, dir=both];

  users_models_AdministrativePersonnelProxy -> users_models_CustomUser
  [label="proxy\ninheritance"] [arrowhead=empty, arrowtail=none, dir=both];

  users_models_PatientManagerProxy -> users_models_CustomUser
  [label="proxy\ninheritance"] [arrowhead=empty, arrowtail=none, dir=both];

  users_models_InstitutionProxy -> users_models_CustomUser
  [label="proxy\ninheritance"] [arrowhead=empty, arrowtail=none, dir=both];

  users_models_PersonnelManagerProxy -> users_models_CustomUser
  [label="proxy\ninheritance"] [arrowhead=empty, arrowtail=none, dir=both];

  users_models_InstitutionManager -> users_models_CustomUser
  [label="proxy\ninheritance"] [arrowhead=empty, arrowtail=none, dir=both];

  users_models_AdminManagerProxy -> users_models_CustomUser
  [label="proxy\ninheritance"] [arrowhead=empty, arrowtail=none, dir=both];

  patients_models_Patient -> users_models_CustomUser
  [label="user (b&#39;user&#39;)"] [arrowhead=none, arrowtail=none, dir=both];

  advancedirectives_models_AdvancedDirective -> patients_models_Patient
  [label="patient (b&#39;advanceddirective&#39;)"] [arrowhead=none, arrowtail=dot, dir=both];

  advancedirectives_models_AdvancedDirective -> advancedirectives_models_SupportingDocument
  [label="supporting_document (b&#39;advanceddirective&#39;)"] [arrowhead=none, arrowtail=dot, dir=both];

  problems_models_Problem -> patients_models_Patient
  [label="patient (b&#39;problem&#39;)"] [arrowhead=none, arrowtail=dot, dir=both];

  familyhistory_models_Relative -> familyhistory_models_Relation
  [label="relation (b&#39;relative&#39;)"] [arrowhead=none, arrowtail=dot, dir=both];

  familyhistory_models_FamilyHistory -> patients_models_Patient
  [label="patient (b&#39;familyhistory&#39;)"] [arrowhead=none, arrowtail=dot, dir=both];

  familyhistory_models_FamilyHistory -> familyhistory_models_Relative
  [label="relative (b&#39;familyhistory&#39;)"] [arrowhead=none, arrowtail=dot, dir=both];

  allergiesadversereactionsalerts_models_AllergiesAdverseReactionAlert -> patients_models_Patient
  [label="patient (b&#39;allergiesadversereactionalert&#39;)"] [arrowhead=none, arrowtail=dot, dir=both];

  medications_models_Medication -> patients_models_Patient
  [label="patient (b&#39;medication&#39;)"] [arrowhead=none, arrowtail=dot, dir=both];

  procedures_models_Procedure -> patients_models_Patient
  [label="patient (b&#39;procedure&#39;)"] [arrowhead=none, arrowtail=dot, dir=both];

}

